<?xml version="1.0" encoding="UTF-8"?>
<session version="1.0">
<refactoring comment="Redenominar el recurso &apos;eibs_container_coopeuch/JavaSource/datapro/eibs/reports/JSERC0340.java&apos; como &apos;JSCO03300.java&apos;" description="Redenominar recurso &apos;JSERC0340.java&apos;" flags="7" id="org.eclipse.ltk.core.refactoring.rename.resource" input="JavaSource/datapro/eibs/reports/JSERC0340.java" name="JSCO03300.java" stamp="1423238625140" updateReferences="true"/>
</session>