<?xml version="1.0" encoding="UTF-8"?>
<session version="1.0">
<refactoring accessors="true" comment="Suprimir 1 elemento(s) de proyecto &apos;eibs_container_coopeuch&apos;&#x0D;&#x0A;- Proyecto original: &apos;eibs_container_coopeuch&apos;&#x0D;&#x0A;- Elemento original: &apos;datapro.eibs.client.JSESD0080.java&apos;" description="Suprimir elemento" element1="/JavaSource&lt;datapro.eibs.client{JSESD0080.java" elements="1" flags="589830" id="org.eclipse.jdt.ui.delete" resources="0" stamp="1519218670906" subPackages="false" version="1.0"/>
</session>