<CommonBaseEvent creationTime="2018-02-14T16:20:36.481000Z" globalInstanceId="AA48E9ECA7D54D54BF925ADAB535DB31" msg="Native file server started listening on port 10005" severity="10" version="1.0.1">
	<sourceComponentId component="AgentController" componentIdType="TPTPComponent" executionEnvironment="C:\cygwin\home\build\TPTP\4.5.1\TPTP-4.5.1-200808290100\agntctrl\src\transport\TPTPClientCompTL\ClientCTL.c, line 585" instanceId="1004" location="APIUXNB042" locationType="IPV4" processId="7612" subComponent="Client Compatibility TL" threadId="7616" componentType="Eclipse_TPTP"/>
	<situation categoryName="ReportSituation">
		<situationType xmlns:xsi="http://www.w3.org/2001/XMLSchema-instance" xsi:type="ReportSituation" reasoningScope="INTERNAL" reportCategory="LOG"/>
	</situation>
</CommonBaseEvent>
