<?xml version="1.0" encoding="UTF-8"?>
<session version="1.0">
<refactoring comment="Copiar 1 elemento(s) a &apos;ESD0080_client_personal_confirm.jsp&apos;&#x0D;&#x0A;- Proyecto original: &apos;eibs_container_coopeuch&apos;&#x0D;&#x0A;- Elemento de destino: &apos;ESD0080_client_personal_confirm.jsp&apos;&#x0D;&#x0A;- Elemento original: &apos;ESD0080_client_personal_confirm.jsp&apos;" description="Copiar archivo" element1="WebContent/pages/s/ESD0080_client_personal_confirm.jsp" files="1" flags="589830" folders="0" id="org.eclipse.jdt.ui.copy" policy="org.eclipse.jdt.ui.copyResources" stamp="1522847292461" target="/eibs_container_coopeuch/WebContent/pages/s/ESD0080_client_personal_confirm.jsp" units="0" version="1.0"/>
</session>