<?xml version="1.0" encoding="UTF-8"?>
<session version="1.0">
<refactoring comment="Suprimir 6 recursos" deleteContents="false" description="Suprimir 6 recursos" element1="/eibs_container_coopeuch/WebContent/pages/s/ERC2000_reconcilation_automatic_success.jsp" element2="/eibs_container_coopeuch/WebContent/pages/s/ERC2000_reconcilation_manual_enter.jsp" element3="/eibs_container_coopeuch/WebContent/pages/s/ERC2000_statement_detail.jsp" element4="/eibs_container_coopeuch/WebContent/pages/s/ERC2000_statement_enter.jsp" element5="/eibs_container_coopeuch/WebContent/pages/s/ERC2000_statement_error.jsp" element6="/eibs_container_coopeuch/WebContent/pages/s/ERC2000_statement_list.jsp" flags="7" id="org.eclipse.ltk.core.refactoring.delete.resources" resources="6" stamp="1393876379975"/>
</session>